unit-tests/verilog_generator/ram/ramRF.vcd
$date
	Wed Mar  5 13:44:11 2014
$end
$version
	Icarus Verilog
$end
$timescale
	1s
$end
$scope module ramRF_tb $end
$var wire 16 ! TestRAM_rdata [15:0] $end
$var wire 1 " access_complete $end
$var wire 1 # invalid_address $end
$var wire 64 $ read_data [63:0] $end
$var reg 5 % TestRAM_addr [4:0] $end
$var reg 1 & TestRAM_ren $end
$var reg 16 ' TestRAM_wdata [15:0] $end
$var reg 1 ( TestRAM_wen $end
$var reg 6 ) address [8:3] $end
$var reg 1 * clk $end
$var integer 32 + i [31:0] $end
$var reg 1 , read_en $end
$var reg 1 - res_n $end
$var reg 64 . write_data [63:0] $end
$var reg 1 / write_en $end
$scope module ramRF_I $end
$var wire 5 0 TestRAM_addr [4:0] $end
$var wire 16 1 TestRAM_rdata [15:0] $end
$var wire 1 2 TestRAM_ren $end
$var wire 16 3 TestRAM_rf_rdata [15:0] $end
$var wire 16 4 TestRAM_wdata [15:0] $end
$var wire 1 5 TestRAM_wen $end
$var wire 6 6 address [8:3] $end
$var wire 1 7 clk $end
$var wire 1 8 read_en $end
$var wire 1 9 res_n $end
$var wire 64 : write_data [63:0] $end
$var wire 1 ; write_en $end
$var reg 5 < TestRAM_rf_addr [4:0] $end
$var reg 1 = TestRAM_rf_ren $end
$var reg 16 > TestRAM_rf_wdata [15:0] $end
$var reg 1 ? TestRAM_rf_wen $end
$var reg 1 @ access_complete $end
$var reg 1 A invalid_address $end
$var reg 64 B read_data [63:0] $end
$var reg 1 C read_en_dly0 $end
$var reg 1 D read_en_dly1 $end
$var reg 1 E read_en_dly2 $end
$scope module buffer_data_I $end
$var wire 5 F addr_a [4:0] $end
$var wire 5 G addr_b [4:0] $end
$var wire 1 7 clk $end
$var wire 16 H rdata_a [15:0] $end
$var wire 16 I rdata_b [15:0] $end
$var wire 16 J rdata_ram_a [15:0] $end
$var wire 16 K rdata_ram_b [15:0] $end
$var wire 1 L ren_a $end
$var wire 1 2 ren_b $end
$var wire 16 M wdata_a [15:0] $end
$var wire 16 N wdata_b [15:0] $end
$var wire 1 O wen_a $end
$var wire 1 5 wen_b $end
$var reg 16 P data_out_a [15:0] $end
$var reg 16 Q data_out_b [15:0] $end
$scope begin genblk1 $end
$upscope $end
$upscope $end
$upscope $end
$upscope $end
$enddefinitions $end
#0
$dumpvars
bx Q
bx P
xO
bx N
bx M
xL
bx K
bx J
bx I
bx H
b0 G
bx F
xE
xD
xC
bx B
xA
x@
x?
bx >
x=
bx <
0;
b0 :
09
08
07
b0 6
05
bx 4
bx 3
02
bx 1
b0 0
0/
b0 .
0-
0,
bx +
0*
b0 )
0(
bx '
0&
b0 %
bx $
x#
x"
bx !
$end
#5
0=
0L
0?
0O
0E
0D
0C
0@
0"
0A
0#
1*
17
#10
0*
07
#15
1*
17
#20
0*
07
#25
1*
17
#30
0*
07
#35
1*
17
#40
b100000 .
b100000 :
b100000 )
b100000 6
1/
1;
1-
19
b100000 +
0*
07
#45
1?
1O
b100000 >
b100000 M
b0 <
b0 F
1@
1"
b0xxxxxxxxxxxxxxxx $
b0xxxxxxxxxxxxxxxx B
1*
17
#50
b100001 .
b100001 :
b100001 )
b100001 6
b100001 +
0*
07
#55
b0xxxxxxxxxxxxxxxx B
b100001 >
b100001 M
b1 <
b1 F
1*
17
#60
b100010 .
b100010 :
b100010 )
b100010 6
b100010 +
0*
07
#65
b100000 Q
b100000 K
b100000 !
b100000 1
b100000 I
b100010 >
b100010 M
b10 <
b10 F
b0xxxxxxxxxxxxxxxx B
1*
17
#70
b100011 .
b100011 :
b100011 )
b100011 6
b100011 +
0*
07
#75
b0xxxxxxxxxxxxxxxx B
b100011 >
b100011 M
b11 <
b11 F
1*
17
#80
b100100 .
b100100 :
b100100 )
b100100 6
b100100 +
0*
07
#85
b100100 >
b100100 M
b100 <
b100 F
b0xxxxxxxxxxxxxxxx B
1*
17
#90
b100101 .
b100101 :
b100101 )
b100101 6
b100101 +
0*
07
#95
b0xxxxxxxxxxxxxxxx B
b100101 >
b100101 M
b101 <
b101 F
1*
17
#100
b100110 .
b100110 :
b100110 )
b100110 6
b100110 +
0*
07
#105
b100110 >
b100110 M
b110 <
b110 F
b0xxxxxxxxxxxxxxxx B
1*
17
#110
b100111 .
b100111 :
b100111 )
b100111 6
b100111 +
0*
07
#115
b0xxxxxxxxxxxxxxxx B
b100111 >
b100111 M
b111 <
b111 F
1*
17
#120
b101000 .
b101000 :
b101000 )
b101000 6
b101000 +
0*
07
#125
b101000 >
b101000 M
b1000 <
b1000 F
b0xxxxxxxxxxxxxxxx B
1*
17
#130
b101001 .
b101001 :
b101001 )
b101001 6
b101001 +
0*
07
#135
b0xxxxxxxxxxxxxxxx B
b101001 >
b101001 M
b1001 <
b1001 F
1*
17
#140
b101010 .
b101010 :
b101010 )
b101010 6
b101010 +
0*
07
#145
b101010 >
b101010 M
b1010 <
b1010 F
b0xxxxxxxxxxxxxxxx B
1*
17
#150
b101011 .
b101011 :
b101011 )
b101011 6
b101011 +
0*
07
#155
b0xxxxxxxxxxxxxxxx B
b101011 >
b101011 M
b1011 <
b1011 F
1*
17
#160
b101100 .
b101100 :
b101100 )
b101100 6
b101100 +
0*
07
#165
b101100 >
b101100 M
b1100 <
b1100 F
b0xxxxxxxxxxxxxxxx B
1*
17
#170
b101101 .
b101101 :
b101101 )
b101101 6
b101101 +
0*
07
#175
b0xxxxxxxxxxxxxxxx B
b101101 >
b101101 M
b1101 <
b1101 F
1*
17
#180
b101110 .
b101110 :
b101110 )
b101110 6
b101110 +
0*
07
#185
b101110 >
b101110 M
b1110 <
b1110 F
b0xxxxxxxxxxxxxxxx B
1*
17
#190
b101111 .
b101111 :
b101111 )
b101111 6
b101111 +
0*
07
#195
b0xxxxxxxxxxxxxxxx B
b101111 >
b101111 M
b1111 <
b1111 F
1*
17
#200
b110000 .
b110000 :
b110000 )
b110000 6
b110000 +
0*
07
#205
b110000 >
b110000 M
b10000 <
b10000 F
b0xxxxxxxxxxxxxxxx B
1*
17
#210
b110001 .
b110001 :
b110001 )
b110001 6
b110001 +
0*
07
#215
b0xxxxxxxxxxxxxxxx B
b110001 >
b110001 M
b10001 <
b10001 F
1*
17
#220
b110010 .
b110010 :
b110010 )
b110010 6
b110010 +
0*
07
#225
b110010 >
b110010 M
b10010 <
b10010 F
b0xxxxxxxxxxxxxxxx B
1*
17
#230
b110011 .
b110011 :
b110011 )
b110011 6
b110011 +
0*
07
#235
b0xxxxxxxxxxxxxxxx B
b110011 >
b110011 M
b10011 <
b10011 F
1*
17
#240
b110100 .
b110100 :
b110100 )
b110100 6
b110100 +
0*
07
#245
b110100 >
b110100 M
b10100 <
b10100 F
b0xxxxxxxxxxxxxxxx B
1*
17
#250
b110101 .
b110101 :
b110101 )
b110101 6
b110101 +
0*
07
#255
b0xxxxxxxxxxxxxxxx B
b110101 >
b110101 M
b10101 <
b10101 F
1*
17
#260
b110110 .
b110110 :
b110110 )
b110110 6
b110110 +
0*
07
#265
b110110 >
b110110 M
b10110 <
b10110 F
b0xxxxxxxxxxxxxxxx B
1*
17
#270
b110111 .
b110111 :
b110111 )
b110111 6
b110111 +
0*
07
#275
b0xxxxxxxxxxxxxxxx B
b110111 >
b110111 M
b10111 <
b10111 F
1*
17
#280
b111000 .
b111000 :
b111000 )
b111000 6
b111000 +
0*
07
#285
b111000 >
b111000 M
b11000 <
b11000 F
b0xxxxxxxxxxxxxxxx B
1*
17
#290
b111001 .
b111001 :
b111001 )
b111001 6
b111001 +
0*
07
#295
b0xxxxxxxxxxxxxxxx B
b111001 >
b111001 M
b11001 <
b11001 F
1*
17
#300
b111010 .
b111010 :
b111010 )
b111010 6
b111010 +
0*
07
#305
b111010 >
b111010 M
b11010 <
b11010 F
b0xxxxxxxxxxxxxxxx B
1*
17
#310
b111011 .
b111011 :
b111011 )
b111011 6
b111011 +
0*
07
#315
b0xxxxxxxxxxxxxxxx B
b111011 >
b111011 M
b11011 <
b11011 F
1*
17
#320
b111100 .
b111100 :
b111100 )
b111100 6
b111100 +
0*
07
#325
b111100 >
b111100 M
b11100 <
b11100 F
b0xxxxxxxxxxxxxxxx B
1*
17
#330
b111101 .
b111101 :
b111101 )
b111101 6
b111101 +
0*
07
#335
b0xxxxxxxxxxxxxxxx B
b111101 >
b111101 M
b11101 <
b11101 F
1*
17
#340
b111110 .
b111110 :
b111110 )
b111110 6
b111110 +
0*
07
#345
b111110 >
b111110 M
b11110 <
b11110 F
b0xxxxxxxxxxxxxxxx B
1*
17
#350
b111111 .
b111111 :
b111111 )
b111111 6
b111111 +
0*
07
#355
b0xxxxxxxxxxxxxxxx B
b111111 >
b111111 M
b11111 <
b11111 F
1*
17
#360
b0 '
b0 4
b0 N
1&
12
0/
0;
b0 +
0*
07
#365
0?
0O
0@
0"
b0xxxxxxxxxxxxxxxx B
1*
17
#370
b1 %
b1 0
b1 G
b1 +
0*
07
#375
b0xxxxxxxxxxxxxxxx B
b100001 Q
b100001 K
b100001 !
b100001 1
b100001 I
b111111 P
b111111 J
b111111 3
b111111 H
1*
17
#380
b10 %
b10 0
b10 G
b10 +
0*
07
#385
b100010 Q
b100010 K
b100010 !
b100010 1
b100010 I
b111111 B
b111111 $
1*
17
#390
b11 %
b11 0
b11 G
b11 +
0*
07
#395
b111111 B
b100011 Q
b100011 K
b100011 !
b100011 1
b100011 I
1*
17
#400
b100 %
b100 0
b100 G
b100 +
0*
07
#405
b100100 Q
b100100 K
b100100 !
b100100 1
b100100 I
b111111 B
1*
17
#410
b101 %
b101 0
b101 G
b101 +
0*
07
#415
b111111 B
b100101 Q
b100101 K
b100101 !
b100101 1
b100101 I
1*
17
#420
b110 %
b110 0
b110 G
b110 +
0*
07
#425
b100110 Q
b100110 K
b100110 !
b100110 1
b100110 I
b111111 B
1*
17
#430
b111 %
b111 0
b111 G
b111 +
0*
07
#435
b111111 B
b100111 Q
b100111 K
b100111 !
b100111 1
b100111 I
1*
17
#440
b1000 %
b1000 0
b1000 G
b1000 +
0*
07
#445
b101000 Q
b101000 K
b101000 !
b101000 1
b101000 I
b111111 B
1*
17
#450
b1001 %
b1001 0
b1001 G
b1001 +
0*
07
#455
b111111 B
b101001 Q
b101001 K
b101001 !
b101001 1
b101001 I
1*
17
#460
b1010 %
b1010 0
b1010 G
b1010 +
0*
07
#465
b101010 Q
b101010 K
b101010 !
b101010 1
b101010 I
b111111 B
1*
17
#470
b1011 %
b1011 0
b1011 G
b1011 +
0*
07
#475
b111111 B
b101011 Q
b101011 K
b101011 !
b101011 1
b101011 I
1*
17
#480
b1100 %
b1100 0
b1100 G
b1100 +
0*
07
#485
b101100 Q
b101100 K
b101100 !
b101100 1
b101100 I
b111111 B
1*
17
#490
b1101 %
b1101 0
b1101 G
b1101 +
0*
07
#495
b111111 B
b101101 Q
b101101 K
b101101 !
b101101 1
b101101 I
1*
17
#500
b1110 %
b1110 0
b1110 G
b1110 +
0*
07
#505
b101110 Q
b101110 K
b101110 !
b101110 1
b101110 I
b111111 B
1*
17
#510
b1111 %
b1111 0
b1111 G
b1111 +
0*
07
#515
b111111 B
b101111 Q
b101111 K
b101111 !
b101111 1
b101111 I
1*
17
#520
b10000 %
b10000 0
b10000 G
b10000 +
0*
07
#525
b110000 Q
b110000 K
b110000 !
b110000 1
b110000 I
b111111 B
1*
17
#530
b10001 %
b10001 0
b10001 G
b10001 +
0*
07
#535
b111111 B
b110001 Q
b110001 K
b110001 !
b110001 1
b110001 I
1*
17
#540
b10010 %
b10010 0
b10010 G
b10010 +
0*
07
#545
b110010 Q
b110010 K
b110010 !
b110010 1
b110010 I
b111111 B
1*
17
#550
b10011 %
b10011 0
b10011 G
b10011 +
0*
07
#555
b111111 B
b110011 Q
b110011 K
b110011 !
b110011 1
b110011 I
1*
17
#560
b10100 %
b10100 0
b10100 G
b10100 +
0*
07
#565
b110100 Q
b110100 K
b110100 !
b110100 1
b110100 I
b111111 B
1*
17
#570
b10101 %
b10101 0
b10101 G
b10101 +
0*
07
#575
b111111 B
b110101 Q
b110101 K
b110101 !
b110101 1
b110101 I
1*
17
#580
b10110 %
b10110 0
b10110 G
b10110 +
0*
07
#585
b110110 Q
b110110 K
b110110 !
b110110 1
b110110 I
b111111 B
1*
17
#590
b10111 %
b10111 0
b10111 G
b10111 +
0*
07
#595
b111111 B
b110111 Q
b110111 K
b110111 !
b110111 1
b110111 I
1*
17
#600
b11000 %
b11000 0
b11000 G
b11000 +
0*
07
#605
b111000 Q
b111000 K
b111000 !
b111000 1
b111000 I
b111111 B
1*
17
#610
b11001 %
b11001 0
b11001 G
b11001 +
0*
07
#615
b111111 B
b111001 Q
b111001 K
b111001 !
b111001 1
b111001 I
1*
17
#620
b11010 %
b11010 0
b11010 G
b11010 +
0*
07
#625
b111010 Q
b111010 K
b111010 !
b111010 1
b111010 I
b111111 B
1*
17
#630
b11011 %
b11011 0
b11011 G
b11011 +
0*
07
#635
b111111 B
b111011 Q
b111011 K
b111011 !
b111011 1
b111011 I
1*
17
#640
b11100 %
b11100 0
b11100 G
b11100 +
0*
07
#645
b111100 Q
b111100 K
b111100 !
b111100 1
b111100 I
b111111 B
1*
17
#650
b11101 %
b11101 0
b11101 G
b11101 +
0*
07
#655
b111111 B
b111101 Q
b111101 K
b111101 !
b111101 1
b111101 I
1*
17
#660
b11110 %
b11110 0
b11110 G
b11110 +
0*
07
#665
b111110 Q
b111110 K
b111110 !
b111110 1
b111110 I
b111111 B
1*
17
#670
b11111 %
b11111 0
b11111 G
b11111 +
0*
07
#675
b111111 B
b111111 Q
b111111 K
b111111 !
b111111 1
b111111 I
1*
17
#680
b0 %
b0 0
b0 G
1(
15
0&
02
b0 +
0*
07
#685
b100000 Q
b100000 K
b100000 !
b100000 1
b100000 I
b111111 B
1*
17
#690
b1 '
b1 4
b1 N
b1 %
b1 0
b1 G
b1 +
0*
07
#695
b111111 B
b100001 Q
b100001 K
b100001 !
b100001 1
b100001 I
1*
17
#700
b10 '
b10 4
b10 N
b10 %
b10 0
b10 G
b10 +
0*
07
#705
b100010 Q
b100010 K
b100010 !
b100010 1
b100010 I
b111111 B
1*
17
#710
b11 '
b11 4
b11 N
b11 %
b11 0
b11 G
b11 +
0*
07
#715
b111111 B
b100011 Q
b100011 K
b100011 !
b100011 1
b100011 I
1*
17
#720
b100 '
b100 4
b100 N
b100 %
b100 0
b100 G
b100 +
0*
07
#725
b100100 Q
b100100 K
b100100 !
b100100 1
b100100 I
b111111 B
1*
17
#730
b101 '
b101 4
b101 N
b101 %
b101 0
b101 G
b101 +
0*
07
#735
b111111 B
b100101 Q
b100101 K
b100101 !
b100101 1
b100101 I
1*
17
#740
b110 '
b110 4
b110 N
b110 %
b110 0
b110 G
b110 +
0*
07
#745
b100110 Q
b100110 K
b100110 !
b100110 1
b100110 I
b111111 B
1*
17
#750
b111 '
b111 4
b111 N
b111 %
b111 0
b111 G
b111 +
0*
07
#755
b111111 B
b100111 Q
b100111 K
b100111 !
b100111 1
b100111 I
1*
17
#760
b1000 '
b1000 4
b1000 N
b1000 %
b1000 0
b1000 G
b1000 +
0*
07
#765
b101000 Q
b101000 K
b101000 !
b101000 1
b101000 I
b111111 B
1*
17
#770
b1001 '
b1001 4
b1001 N
b1001 %
b1001 0
b1001 G
b1001 +
0*
07
#775
b111111 B
b101001 Q
b101001 K
b101001 !
b101001 1
b101001 I
1*
17
#780
b1010 '
b1010 4
b1010 N
b1010 %
b1010 0
b1010 G
b1010 +
0*
07
#785
b101010 Q
b101010 K
b101010 !
b101010 1
b101010 I
b111111 B
1*
17
#790
b1011 '
b1011 4
b1011 N
b1011 %
b1011 0
b1011 G
b1011 +
0*
07
#795
b111111 B
b101011 Q
b101011 K
b101011 !
b101011 1
b101011 I
1*
17
#800
b1100 '
b1100 4
b1100 N
b1100 %
b1100 0
b1100 G
b1100 +
0*
07
#805
b101100 Q
b101100 K
b101100 !
b101100 1
b101100 I
b111111 B
1*
17
#810
b1101 '
b1101 4
b1101 N
b1101 %
b1101 0
b1101 G
b1101 +
0*
07
#815
b111111 B
b101101 Q
b101101 K
b101101 !
b101101 1
b101101 I
1*
17
#820
b1110 '
b1110 4
b1110 N
b1110 %
b1110 0
b1110 G
b1110 +
0*
07
#825
b101110 Q
b101110 K
b101110 !
b101110 1
b101110 I
b111111 B
1*
17
#830
b1111 '
b1111 4
b1111 N
b1111 %
b1111 0
b1111 G
b1111 +
0*
07
#835
b111111 B
b101111 Q
b101111 K
b101111 !
b101111 1
b101111 I
1*
17
#840
b10000 '
b10000 4
b10000 N
b10000 %
b10000 0
b10000 G
b10000 +
0*
07
#845
b110000 Q
b110000 K
b110000 !
b110000 1
b110000 I
b111111 B
1*
17
#850
b10001 '
b10001 4
b10001 N
b10001 %
b10001 0
b10001 G
b10001 +
0*
07
#855
b111111 B
b110001 Q
b110001 K
b110001 !
b110001 1
b110001 I
1*
17
#860
b10010 '
b10010 4
b10010 N
b10010 %
b10010 0
b10010 G
b10010 +
0*
07
#865
b110010 Q
b110010 K
b110010 !
b110010 1
b110010 I
b111111 B
1*
17
#870
b10011 '
b10011 4
b10011 N
b10011 %
b10011 0
b10011 G
b10011 +
0*
07
#875
b111111 B
b110011 Q
b110011 K
b110011 !
b110011 1
b110011 I
1*
17
#880
b10100 '
b10100 4
b10100 N
b10100 %
b10100 0
b10100 G
b10100 +
0*
07
#885
b110100 Q
b110100 K
b110100 !
b110100 1
b110100 I
b111111 B
1*
17
#890
b10101 '
b10101 4
b10101 N
b10101 %
b10101 0
b10101 G
b10101 +
0*
07
#895
b111111 B
b110101 Q
b110101 K
b110101 !
b110101 1
b110101 I
1*
17
#900
b10110 '
b10110 4
b10110 N
b10110 %
b10110 0
b10110 G
b10110 +
0*
07
#905
b110110 Q
b110110 K
b110110 !
b110110 1
b110110 I
b111111 B
1*
17
#910
b10111 '
b10111 4
b10111 N
b10111 %
b10111 0
b10111 G
b10111 +
0*
07
#915
b111111 B
b110111 Q
b110111 K
b110111 !
b110111 1
b110111 I
1*
17
#920
b11000 '
b11000 4
b11000 N
b11000 %
b11000 0
b11000 G
b11000 +
0*
07
#925
b111000 Q
b111000 K
b111000 !
b111000 1
b111000 I
b111111 B
1*
17
#930
b11001 '
b11001 4
b11001 N
b11001 %
b11001 0
b11001 G
b11001 +
0*
07
#935
b111111 B
b111001 Q
b111001 K
b111001 !
b111001 1
b111001 I
1*
17
#940
b11010 '
b11010 4
b11010 N
b11010 %
b11010 0
b11010 G
b11010 +
0*
07
#945
b111010 Q
b111010 K
b111010 !
b111010 1
b111010 I
b111111 B
1*
17
#950
b11011 '
b11011 4
b11011 N
b11011 %
b11011 0
b11011 G
b11011 +
0*
07
#955
b111111 B
b111011 Q
b111011 K
b111011 !
b111011 1
b111011 I
1*
17
#960
b11100 '
b11100 4
b11100 N
b11100 %
b11100 0
b11100 G
b11100 +
0*
07
#965
b111100 Q
b111100 K
b111100 !
b111100 1
b111100 I
b111111 B
1*
17
#970
b11101 '
b11101 4
b11101 N
b11101 %
b11101 0
b11101 G
b11101 +
0*
07
#975
b111111 B
b111101 Q
b111101 K
b111101 !
b111101 1
b111101 I
1*
17
#980
b11110 '
b11110 4
b11110 N
b11110 %
b11110 0
b11110 G
b11110 +
0*
07
#985
b111110 Q
b111110 K
b111110 !
b111110 1
b111110 I
b111111 B
1*
17
#990
b11111 '
b11111 4
b11111 N
b11111 %
b11111 0
b11111 G
b11111 +
0*
07
#995
b111111 B
b111111 Q
b111111 K
b111111 !
b111111 1
b111111 I
1*
17
#1000
b100000 )
b100000 6
1,
18
0(
05
b100000 +
0*
07
#1005
b11111 P
b11111 J
b11111 3
b11111 H
b11111 Q
b11111 K
b11111 !
b11111 1
b11111 I
1=
1L
b0 <
b0 F
b111111 B
1C
1*
17
#1010
0,
08
0*
07
#1015
b11111 B
b11111 $
1D
0C
0=
0L
b0 P
b0 J
b0 3
b0 H
1*
17
#1020
0*
07
#1025
b0 B
b0 $
1E
0D
1*
17
#1030
0*
07
#1035
1@
1"
b0 B
0E
1*
17
#1040
0*
07
#1045
0@
0"
b0 B
1*
17
#1050
b100001 )
b100001 6
1,
18
b100001 +
0*
07
#1055
b0 B
1C
1=
1L
b1 <
b1 F
1*
17
#1060
0,
08
0*
07
#1065
b1 P
b1 J
b1 3
b1 H
0=
0L
b0 B
1D
0C
1*
17
#1070
0*
07
#1075
b1 B
b1 $
1E
0D
1*
17
#1080
0*
07
#1085
1@
1"
b1 B
0E
1*
17
#1090
0*
07
#1095
0@
0"
b1 B
1*
17
#1100
b100010 )
b100010 6
1,
18
b100010 +
0*
07
#1105
1=
1L
b10 <
b10 F
b1 B
1C
1*
17
#1110
0,
08
0*
07
#1115
b1 B
1D
0C
0=
0L
b10 P
b10 J
b10 3
b10 H
1*
17
#1120
0*
07
#1125
b10 B
b10 $
1E
0D
1*
17
#1130
0*
07
#1135
1@
1"
b10 B
0E
1*
17
#1140
0*
07
#1145
0@
0"
b10 B
1*
17
#1150
b100011 )
b100011 6
1,
18
b100011 +
0*
07
#1155
b10 B
1C
1=
1L
b11 <
b11 F
1*
17
#1160
0,
08
0*
07
#1165
b11 P
b11 J
b11 3
b11 H
0=
0L
b10 B
1D
0C
1*
17
#1170
0*
07
#1175
b11 B
b11 $
1E
0D
1*
17
#1180
0*
07
#1185
1@
1"
b11 B
0E
1*
17
#1190
0*
07
#1195
0@
0"
b11 B
1*
17
#1200
b100100 )
b100100 6
1,
18
b100100 +
0*
07
#1205
1=
1L
b100 <
b100 F
b11 B
1C
1*
17
#1210
0,
08
0*
07
#1215
b11 B
1D
0C
0=
0L
b100 P
b100 J
b100 3
b100 H
1*
17
#1220
0*
07
#1225
b100 B
b100 $
1E
0D
1*
17
#1230
0*
07
#1235
1@
1"
b100 B
0E
1*
17
#1240
0*
07
#1245
0@
0"
b100 B
1*
17
#1250
b100101 )
b100101 6
1,
18
b100101 +
0*
07
#1255
b100 B
1C
1=
1L
b101 <
b101 F
1*
17
#1260
0,
08
0*
07
#1265
b101 P
b101 J
b101 3
b101 H
0=
0L
b100 B
1D
0C
1*
17
#1270
0*
07
#1275
b101 B
b101 $
1E
0D
1*
17
#1280
0*
07
#1285
1@
1"
b101 B
0E
1*
17
#1290
0*
07
#1295
0@
0"
b101 B
1*
17
#1300
b100110 )
b100110 6
1,
18
b100110 +
0*
07
#1305
1=
1L
b110 <
b110 F
b101 B
1C
1*
17
#1310
0,
08
0*
07
#1315
b101 B
1D
0C
0=
0L
b110 P
b110 J
b110 3
b110 H
1*
17
#1320
0*
07
#1325
b110 B
b110 $
1E
0D
1*
17
#1330
0*
07
#1335
1@
1"
b110 B
0E
1*
17
#1340
0*
07
#1345
0@
0"
b110 B
1*
17
#1350
b100111 )
b100111 6
1,
18
b100111 +
0*
07
#1355
b110 B
1C
1=
1L
b111 <
b111 F
1*
17
#1360
0,
08
0*
07
#1365
b111 P
b111 J
b111 3
b111 H
0=
0L
b110 B
1D
0C
1*
17
#1370
0*
07
#1375
b111 B
b111 $
1E
0D
1*
17
#1380
0*
07
#1385
1@
1"
b111 B
0E
1*
17
#1390
0*
07
#1395
0@
0"
b111 B
1*
17
#1400
b101000 )
b101000 6
1,
18
b101000 +
0*
07
#1405
1=
1L
b1000 <
b1000 F
b111 B
1C
1*
17
#1410
0,
08
0*
07
#1415
b111 B
1D
0C
0=
0L
b1000 P
b1000 J
b1000 3
b1000 H
1*
17
#1420
0*
07
#1425
b1000 B
b1000 $
1E
0D
1*
17
#1430
0*
07
#1435
1@
1"
b1000 B
0E
1*
17
#1440
0*
07
#1445
0@
0"
b1000 B
1*
17
#1450
b101001 )
b101001 6
1,
18
b101001 +
0*
07
#1455
b1000 B
1C
1=
1L
b1001 <
b1001 F
1*
17
#1460
0,
08
0*
07
#1465
b1001 P
b1001 J
b1001 3
b1001 H
0=
0L
b1000 B
1D
0C
1*
17
#1470
0*
07
#1475
b1001 B
b1001 $
1E
0D
1*
17
#1480
0*
07
#1485
1@
1"
b1001 B
0E
1*
17
#1490
0*
07
#1495
0@
0"
b1001 B
1*
17
#1500
b101010 )
b101010 6
1,
18
b101010 +
0*
07
#1505
1=
1L
b1010 <
b1010 F
b1001 B
1C
1*
17
#1510
0,
08
0*
07
#1515
b1001 B
1D
0C
0=
0L
b1010 P
b1010 J
b1010 3
b1010 H
1*
17
#1520
0*
07
#1525
b1010 B
b1010 $
1E
0D
1*
17
#1530
0*
07
#1535
1@
1"
b1010 B
0E
1*
17
#1540
0*
07
#1545
0@
0"
b1010 B
1*
17
#1550
b101011 )
b101011 6
1,
18
b101011 +
0*
07
#1555
b1010 B
1C
1=
1L
b1011 <
b1011 F
1*
17
#1560
0,
08
0*
07
#1565
b1011 P
b1011 J
b1011 3
b1011 H
0=
0L
b1010 B
1D
0C
1*
17
#1570
0*
07
#1575
b1011 B
b1011 $
1E
0D
1*
17
#1580
0*
07
#1585
1@
1"
b1011 B
0E
1*
17
#1590
0*
07
#1595
0@
0"
b1011 B
1*
17
#1600
b101100 )
b101100 6
1,
18
b101100 +
0*
07
#1605
1=
1L
b1100 <
b1100 F
b1011 B
1C
1*
17
#1610
0,
08
0*
07
#1615
b1011 B
1D
0C
0=
0L
b1100 P
b1100 J
b1100 3
b1100 H
1*
17
#1620
0*
07
#1625
b1100 B
b1100 $
1E
0D
1*
17
#1630
0*
07
#1635
1@
1"
b1100 B
0E
1*
17
#1640
0*
07
#1645
0@
0"
b1100 B
1*
17
#1650
b101101 )
b101101 6
1,
18
b101101 +
0*
07
#1655
b1100 B
1C
1=
1L
b1101 <
b1101 F
1*
17
#1660
0,
08
0*
07
#1665
b1101 P
b1101 J
b1101 3
b1101 H
0=
0L
b1100 B
1D
0C
1*
17
#1670
0*
07
#1675
b1101 B
b1101 $
1E
0D
1*
17
#1680
0*
07
#1685
1@
1"
b1101 B
0E
1*
17
#1690
0*
07
#1695
0@
0"
b1101 B
1*
17
#1700
b101110 )
b101110 6
1,
18
b101110 +
0*
07
#1705
1=
1L
b1110 <
b1110 F
b1101 B
1C
1*
17
#1710
0,
08
0*
07
#1715
b1101 B
1D
0C
0=
0L
b1110 P
b1110 J
b1110 3
b1110 H
1*
17
#1720
0*
07
#1725
b1110 B
b1110 $
1E
0D
1*
17
#1730
0*
07
#1735
1@
1"
b1110 B
0E
1*
17
#1740
0*
07
#1745
0@
0"
b1110 B
1*
17
#1750
b101111 )
b101111 6
1,
18
b101111 +
0*
07
#1755
b1110 B
1C
1=
1L
b1111 <
b1111 F
1*
17
#1760
0,
08
0*
07
#1765
b1111 P
b1111 J
b1111 3
b1111 H
0=
0L
b1110 B
1D
0C
1*
17
#1770
0*
07
#1775
b1111 B
b1111 $
1E
0D
1*
17
#1780
0*
07
#1785
1@
1"
b1111 B
0E
1*
17
#1790
0*
07
#1795
0@
0"
b1111 B
1*
17
#1800
b110000 )
b110000 6
1,
18
b110000 +
0*
07
#1805
1=
1L
b10000 <
b10000 F
b1111 B
1C
1*
17
#1810
0,
08
0*
07
#1815
b1111 B
1D
0C
0=
0L
b10000 P
b10000 J
b10000 3
b10000 H
1*
17
#1820
0*
07
#1825
b10000 B
b10000 $
1E
0D
1*
17
#1830
0*
07
#1835
1@
1"
b10000 B
0E
1*
17
#1840
0*
07
#1845
0@
0"
b10000 B
1*
17
#1850
b110001 )
b110001 6
1,
18
b110001 +
0*
07
#1855
b10000 B
1C
1=
1L
b10001 <
b10001 F
1*
17
#1860
0,
08
0*
07
#1865
b10001 P
b10001 J
b10001 3
b10001 H
0=
0L
b10000 B
1D
0C
1*
17
#1870
0*
07
#1875
b10001 B
b10001 $
1E
0D
1*
17
#1880
0*
07
#1885
1@
1"
b10001 B
0E
1*
17
#1890
0*
07
#1895
0@
0"
b10001 B
1*
17
#1900
b110010 )
b110010 6
1,
18
b110010 +
0*
07
#1905
1=
1L
b10010 <
b10010 F
b10001 B
1C
1*
17
#1910
0,
08
0*
07
#1915
b10001 B
1D
0C
0=
0L
b10010 P
b10010 J
b10010 3
b10010 H
1*
17
#1920
0*
07
#1925
b10010 B
b10010 $
1E
0D
1*
17
#1930
0*
07
#1935
1@
1"
b10010 B
0E
1*
17
#1940
0*
07
#1945
0@
0"
b10010 B
1*
17
#1950
b110011 )
b110011 6
1,
18
b110011 +
0*
07
#1955
b10010 B
1C
1=
1L
b10011 <
b10011 F
1*
17
#1960
0,
08
0*
07
#1965
b10011 P
b10011 J
b10011 3
b10011 H
0=
0L
b10010 B
1D
0C
1*
17
#1970
0*
07
#1975
b10011 B
b10011 $
1E
0D
1*
17
#1980
0*
07
#1985
1@
1"
b10011 B
0E
1*
17
#1990
0*
07
#1995
0@
0"
b10011 B
1*
17
#2000
b110100 )
b110100 6
1,
18
b110100 +
0*
07
#2005
1=
1L
b10100 <
b10100 F
b10011 B
1C
1*
17
#2010
0,
08
0*
07
#2015
b10011 B
1D
0C
0=
0L
b10100 P
b10100 J
b10100 3
b10100 H
1*
17
#2020
0*
07
#2025
b10100 B
b10100 $
1E
0D
1*
17
#2030
0*
07
#2035
1@
1"
b10100 B
0E
1*
17
#2040
0*
07
#2045
0@
0"
b10100 B
1*
17
#2050
b110101 )
b110101 6
1,
18
b110101 +
0*
07
#2055
b10100 B
1C
1=
1L
b10101 <
b10101 F
1*
17
#2060
0,
08
0*
07
#2065
b10101 P
b10101 J
b10101 3
b10101 H
0=
0L
b10100 B
1D
0C
1*
17
#2070
0*
07
#2075
b10101 B
b10101 $
1E
0D
1*
17
#2080
0*
07
#2085
1@
1"
b10101 B
0E
1*
17
#2090
0*
07
#2095
0@
0"
b10101 B
1*
17
#2100
b110110 )
b110110 6
1,
18
b110110 +
0*
07
